%YAML 1.1
%TAG !u! tag:unity3d.com,2011:
--- !u!74 &7400000
AnimationClip:
  m_ObjectHideFlags: 0
  m_CorrespondingSourceObject: {fileID: 0}
  m_PrefabInstance: {fileID: 0}
  m_PrefabAsset: {fileID: 0}
  m_Name: Spin
  serializedVersion: 6
  m_Legacy: 0
  m_Compressed: 0
  m_UseHighQualityCurve: 1
  m_RotationCurves: []
  m_CompressedRotationCurves: []
  m_EulerCurves: []
  m_PositionCurves: []
  m_ScaleCurves: []
  m_FloatCurves: []
  m_PPtrCurves:
  - curve:
    - time: 0
      value: {fileID: 21300000, guid: bebec19f7e4e66348bf74ec35356a913, type: 3}
    - time: 0.033333335
      value: {fileID: 21300000, guid: 59e91dd31d06fb746a5cdfea1c5cb69e, type: 3}
    - time: 0.06666667
      value: {fileID: 21300000, guid: 2cff9b5db46e7cb4da23c2d0b28057d1, type: 3}
    - time: 0.1
      value: {fileID: 21300000, guid: ee6e86e844e84d44a8f2af405804432f, type: 3}
    - time: 0.13333334
      value: {fileID: 21300000, guid: e164a2873f8931447a53c91ee256f1f9, type: 3}
    - time: 0.16666667
      value: {fileID: 21300000, guid: 22feb3ae28e1d604e8e35228dd16f8a0, type: 3}
    - time: 0.2
      value: {fileID: 21300000, guid: 839cb4320296d504d95268b65013d859, type: 3}
    - time: 0.23333333
      value: {fileID: 21300000, guid: 70603d9cf6ef3564da249fcb7495edef, type: 3}
    - time: 0.26666668
      value: {fileID: 21300000, guid: cdfd7cdd15cc5964195a91a5087dfabe, type: 3}
    - time: 0.3
      value: {fileID: 21300000, guid: dba3dfec5af38b44a9a2f820cfb96c0d, type: 3}
    - time: 0.35
      value: {fileID: 21300000, guid: 0690b07970c714446ba573d3013417c4, type: 3}
    - time: 0.38333333
      value: {fileID: 21300000, guid: 8b652a60f72cd8d4a85ccab4044feb63, type: 3}
    - time: 0.41666666
      value: {fileID: 21300000, guid: 49abdd063bd1a304e91b5c3d0ad3e24b, type: 3}
    - time: 0.45
      value: {fileID: 21300000, guid: 1e9541410d5b345409e5e52c1256e768, type: 3}
    - time: 0.48333332
      value: {fileID: 21300000, guid: 6912a55127ec5fe43b8e4a6cdd957a82, type: 3}
    - time: 0.51666665
      value: {fileID: 21300000, guid: 8a9afbc869976f843926ed557c945c46, type: 3}
    - time: 0.55
      value: {fileID: 21300000, guid: 55e10c08e8919124b8a5a60a1c8b313b, type: 3}
    - time: 0.5833333
      value: {fileID: 21300000, guid: cf45221c8a05f3948a2308e9b54620dd, type: 3}
    - time: 0.6166667
      value: {fileID: 21300000, guid: b07fc7c48b5239248821d57a96bad57e, type: 3}
    - time: 0.65
      value: {fileID: 21300000, guid: c1f8eb30f4de13c4980d59ae4072b837, type: 3}
    - time: 0.68333334
      value: {fileID: 21300000, guid: 96e8f858201b2f745b57afdab2ccc1fa, type: 3}
    - time: 0.71666664
      value: {fileID: 21300000, guid: 4674cd38d27d743489a5b6a68be97bb1, type: 3}
    - time: 0.75
      value: {fileID: 21300000, guid: c411c25ec7c0b7c4295f720f65026987, type: 3}
    - time: 0.78333336
      value: {fileID: 21300000, guid: 5a55358c1b04b4a4d92b3daeef83c71e, type: 3}
    - time: 0.81666666
      value: {fileID: 21300000, guid: adfb6e6706bec1349a72d3edf391f9da, type: 3}
    - time: 0.85
      value: {fileID: 21300000, guid: 31094638cf355394f8dc144297e7024c, type: 3}
    - time: 0.8833333
      value: {fileID: 21300000, guid: f9c4bbcc8fb47704981c5bee0f281e2b, type: 3}
    - time: 0.9166667
      value: {fileID: 21300000, guid: 8a21fd14e519bd640ad6e765f2398b1c, type: 3}
    - time: 0.95
      value: {fileID: 21300000, guid: 841628f69e10fd144ba9e7a652dc6970, type: 3}
    - time: 0.98333335
      value: {fileID: 21300000, guid: baf22314845814c49b2bfbdc8fa2391b, type: 3}
    - time: 1.0166667
      value: {fileID: 21300000, guid: a787680cf4d4f78479effcabfc6b1d44, type: 3}
    - time: 1.05
      value: {fileID: 21300000, guid: 4a1e9946b1349c0428f77a08ef5ba26b, type: 3}
    - time: 1.0833334
      value: {fileID: 21300000, guid: e8aa9b7f0c7d7a3408aaf5bb8720bc5e, type: 3}
    - time: 1.1166667
      value: {fileID: 21300000, guid: 60433d07895ea3d489fc01144eae0e6c, type: 3}
    - time: 1.15
      value: {fileID: 21300000, guid: 20e5a65d360968e4db612b211a993ec9, type: 3}
    - time: 1.1833333
      value: {fileID: 21300000, guid: 7f283cdaf1e34484db5cc7f7751ecbfb, type: 3}
    - time: 1.2166667
      value: {fileID: 21300000, guid: 6e213b667355f4c44a334ce8fd6ca4dd, type: 3}
    - time: 1.25
      value: {fileID: 21300000, guid: f086e03067bf13241b8f62f600426a4b, type: 3}
    - time: 1.2833333
      value: {fileID: 21300000, guid: 1f33ac001a035b748bf974d500fff1ad, type: 3}
    - time: 1.3166667
      value: {fileID: 21300000, guid: a2c3f7ff7074f5442ac173e62b0ce47a, type: 3}
    - time: 1.35
      value: {fileID: 21300000, guid: d5cb651090fb8204d807a7b895b3b218, type: 3}
    - time: 1.3833333
      value: {fileID: 21300000, guid: 4dad9717fd39f664482a9467b1944f33, type: 3}
    - time: 1.4166666
      value: {fileID: 21300000, guid: 4c98a344997233648847432ad028f12f, type: 3}
    - time: 1.45
      value: {fileID: 21300000, guid: e2c58439ee9bb1f4296bd30bed53921e, type: 3}
    - time: 1.4833333
      value: {fileID: 21300000, guid: fb05ea61ca7c4d548a154365f14a9f72, type: 3}
    - time: 1.5166667
      value: {fileID: 21300000, guid: 04085b25bc40b1544ba0fb8ea2e274d7, type: 3}
    - time: 1.55
      value: {fileID: 21300000, guid: 907ceac369ac2824094786a6220f2f20, type: 3}
    - time: 1.5833334
      value: {fileID: 21300000, guid: e1eb44240690fe344babab63506cc7ab, type: 3}
    - time: 1.6166667
      value: {fileID: 21300000, guid: f0480cf6c2321ef4ab4ae2cabfdfffda, type: 3}
    - time: 1.65
      value: {fileID: 21300000, guid: 52c0136549a39ed47b6d6100b7dc1397, type: 3}
    - time: 1.7
      value: {fileID: 21300000, guid: 92c81c1e9bd13b348a509251db5e40af, type: 3}
    - time: 1.7333333
      value: {fileID: 21300000, guid: c3f8311011c3fb64cac3b9312502bbbe, type: 3}
    - time: 1.7666667
      value: {fileID: 21300000, guid: fa4ab32f584a40e4c8cbb76bdb609a7b, type: 3}
    - time: 1.8
      value: {fileID: 21300000, guid: 9bded24652109ec4fa6b581594054600, type: 3}
    - time: 1.8333334
      value: {fileID: 21300000, guid: f9180a16449485f4ebaf2754f902c7e6, type: 3}
    - time: 1.8666667
      value: {fileID: 21300000, guid: 5572fbc94d8d9744d838bab16caaa299, type: 3}
    - time: 1.9
      value: {fileID: 21300000, guid: ab7c76e2b13c3d54989d29fb1e867376, type: 3}
    - time: 1.9333333
      value: {fileID: 21300000, guid: 1c61faf4520a0e543bfd2925d10041a8, type: 3}
    - time: 1.9666667
      value: {fileID: 21300000, guid: 1f75b6771ea43904db7d0f4e02b39c42, type: 3}
    - time: 2
      value: {fileID: 21300000, guid: 9f8f1d6581d0c6d4d85b150b1f3089d8, type: 3}
    attribute: m_Sprite
    path: 
    classID: 212
    script: {fileID: 0}
  m_SampleRate: 60
  m_WrapMode: 0
  m_Bounds:
    m_Center: {x: 0, y: 0, z: 0}
    m_Extent: {x: 0, y: 0, z: 0}
  m_ClipBindingConstant:
    genericBindings:
    - serializedVersion: 2
      path: 0
      attribute: 0
      script: {fileID: 0}
      typeID: 212
      customType: 23
      isPPtrCurve: 1
    pptrCurveMapping:
    - {fileID: 21300000, guid: bebec19f7e4e66348bf74ec35356a913, type: 3}
    - {fileID: 21300000, guid: 59e91dd31d06fb746a5cdfea1c5cb69e, type: 3}
    - {fileID: 21300000, guid: 2cff9b5db46e7cb4da23c2d0b28057d1, type: 3}
    - {fileID: 21300000, guid: ee6e86e844e84d44a8f2af405804432f, type: 3}
    - {fileID: 21300000, guid: e164a2873f8931447a53c91ee256f1f9, type: 3}
    - {fileID: 21300000, guid: 22feb3ae28e1d604e8e35228dd16f8a0, type: 3}
    - {fileID: 21300000, guid: 839cb4320296d504d95268b65013d859, type: 3}
    - {fileID: 21300000, guid: 70603d9cf6ef3564da249fcb7495edef, type: 3}
    - {fileID: 21300000, guid: cdfd7cdd15cc5964195a91a5087dfabe, type: 3}
    - {fileID: 21300000, guid: dba3dfec5af38b44a9a2f820cfb96c0d, type: 3}
    - {fileID: 21300000, guid: 0690b07970c714446ba573d3013417c4, type: 3}
    - {fileID: 21300000, guid: 8b652a60f72cd8d4a85ccab4044feb63, type: 3}
    - {fileID: 21300000, guid: 49abdd063bd1a304e91b5c3d0ad3e24b, type: 3}
    - {fileID: 21300000, guid: 1e9541410d5b345409e5e52c1256e768, type: 3}
    - {fileID: 21300000, guid: 6912a55127ec5fe43b8e4a6cdd957a82, type: 3}
    - {fileID: 21300000, guid: 8a9afbc869976f843926ed557c945c46, type: 3}
    - {fileID: 21300000, guid: 55e10c08e8919124b8a5a60a1c8b313b, type: 3}
    - {fileID: 21300000, guid: cf45221c8a05f3948a2308e9b54620dd, type: 3}
    - {fileID: 21300000, guid: b07fc7c48b5239248821d57a96bad57e, type: 3}
    - {fileID: 21300000, guid: c1f8eb30f4de13c4980d59ae4072b837, type: 3}
    - {fileID: 21300000, guid: 96e8f858201b2f745b57afdab2ccc1fa, type: 3}
    - {fileID: 21300000, guid: 4674cd38d27d743489a5b6a68be97bb1, type: 3}
    - {fileID: 21300000, guid: c411c25ec7c0b7c4295f720f65026987, type: 3}
    - {fileID: 21300000, guid: 5a55358c1b04b4a4d92b3daeef83c71e, type: 3}
    - {fileID: 21300000, guid: adfb6e6706bec1349a72d3edf391f9da, type: 3}
    - {fileID: 21300000, guid: 31094638cf355394f8dc144297e7024c, type: 3}
    - {fileID: 21300000, guid: f9c4bbcc8fb47704981c5bee0f281e2b, type: 3}
    - {fileID: 21300000, guid: 8a21fd14e519bd640ad6e765f2398b1c, type: 3}
    - {fileID: 21300000, guid: 841628f69e10fd144ba9e7a652dc6970, type: 3}
    - {fileID: 21300000, guid: baf22314845814c49b2bfbdc8fa2391b, type: 3}
    - {fileID: 21300000, guid: a787680cf4d4f78479effcabfc6b1d44, type: 3}
    - {fileID: 21300000, guid: 4a1e9946b1349c0428f77a08ef5ba26b, type: 3}
    - {fileID: 21300000, guid: e8aa9b7f0c7d7a3408aaf5bb8720bc5e, type: 3}
    - {fileID: 21300000, guid: 60433d07895ea3d489fc01144eae0e6c, type: 3}
    - {fileID: 21300000, guid: 20e5a65d360968e4db612b211a993ec9, type: 3}
    - {fileID: 21300000, guid: 7f283cdaf1e34484db5cc7f7751ecbfb, type: 3}
    - {fileID: 21300000, guid: 6e213b667355f4c44a334ce8fd6ca4dd, type: 3}
    - {fileID: 21300000, guid: f086e03067bf13241b8f62f600426a4b, type: 3}
    - {fileID: 21300000, guid: 1f33ac001a035b748bf974d500fff1ad, type: 3}
    - {fileID: 21300000, guid: a2c3f7ff7074f5442ac173e62b0ce47a, type: 3}
    - {fileID: 21300000, guid: d5cb651090fb8204d807a7b895b3b218, type: 3}
    - {fileID: 21300000, guid: 4dad9717fd39f664482a9467b1944f33, type: 3}
    - {fileID: 21300000, guid: 4c98a344997233648847432ad028f12f, type: 3}
    - {fileID: 21300000, guid: e2c58439ee9bb1f4296bd30bed53921e, type: 3}
    - {fileID: 21300000, guid: fb05ea61ca7c4d548a154365f14a9f72, type: 3}
    - {fileID: 21300000, guid: 04085b25bc40b1544ba0fb8ea2e274d7, type: 3}
    - {fileID: 21300000, guid: 907ceac369ac2824094786a6220f2f20, type: 3}
    - {fileID: 21300000, guid: e1eb44240690fe344babab63506cc7ab, type: 3}
    - {fileID: 21300000, guid: f0480cf6c2321ef4ab4ae2cabfdfffda, type: 3}
    - {fileID: 21300000, guid: 52c0136549a39ed47b6d6100b7dc1397, type: 3}
    - {fileID: 21300000, guid: 92c81c1e9bd13b348a509251db5e40af, type: 3}
    - {fileID: 21300000, guid: c3f8311011c3fb64cac3b9312502bbbe, type: 3}
    - {fileID: 21300000, guid: fa4ab32f584a40e4c8cbb76bdb609a7b, type: 3}
    - {fileID: 21300000, guid: 9bded24652109ec4fa6b581594054600, type: 3}
    - {fileID: 21300000, guid: f9180a16449485f4ebaf2754f902c7e6, type: 3}
    - {fileID: 21300000, guid: 5572fbc94d8d9744d838bab16caaa299, type: 3}
    - {fileID: 21300000, guid: ab7c76e2b13c3d54989d29fb1e867376, type: 3}
    - {fileID: 21300000, guid: 1c61faf4520a0e543bfd2925d10041a8, type: 3}
    - {fileID: 21300000, guid: 1f75b6771ea43904db7d0f4e02b39c42, type: 3}
    - {fileID: 21300000, guid: 9f8f1d6581d0c6d4d85b150b1f3089d8, type: 3}
  m_AnimationClipSettings:
    serializedVersion: 2
    m_AdditiveReferencePoseClip: {fileID: 0}
    m_AdditiveReferencePoseTime: 0
    m_StartTime: 0
    m_StopTime: 2.0166667
    m_OrientationOffsetY: 0
    m_Level: 0
    m_CycleOffset: 0
    m_HasAdditiveReferencePose: 0
    m_LoopTime: 1
    m_LoopBlend: 0
    m_LoopBlendOrientation: 0
    m_LoopBlendPositionY: 0
    m_LoopBlendPositionXZ: 0
    m_KeepOriginalOrientation: 0
    m_KeepOriginalPositionY: 1
    m_KeepOriginalPositionXZ: 0
    m_HeightFromFeet: 0
    m_Mirror: 0
  m_EditorCurves: []
  m_EulerEditorCurves: []
  m_HasGenericRootTransform: 0
  m_HasMotionFloatCurves: 0
  m_Events: []
