%YAML 1.1
%TAG !u! tag:unity3d.com,2011:
--- !u!1 &1201088610546240
GameObject:
  m_ObjectHideFlags: 0
  m_CorrespondingSourceObject: {fileID: 0}
  m_PrefabInstance: {fileID: 0}
  m_PrefabAsset: {fileID: 0}
  serializedVersion: 6
  m_Component:
  - component: {fileID: 4099364924053152}
  - component: {fileID: 8195094279687486824}
  - component: {fileID: 3664157344600022270}
  m_Layer: 31
  m_Name: Layer1
  m_TagString: Untagged
  m_Icon: {fileID: 0}
  m_NavMeshLayer: 0
  m_StaticEditorFlags: 0
  m_IsActive: 1
--- !u!4 &4099364924053152
Transform:
  m_ObjectHideFlags: 0
  m_CorrespondingSourceObject: {fileID: 0}
  m_PrefabInstance: {fileID: 0}
  m_PrefabAsset: {fileID: 0}
  m_GameObject: {fileID: 1201088610546240}
  m_LocalRotation: {x: -0, y: -0, z: -0, w: 1}
  m_LocalPosition: {x: 0, y: 0, z: 0}
  m_LocalScale: {x: 1, y: 1, z: 1}
  m_Children: []
  m_Father: {fileID: 4498376204177096}
  m_RootOrder: 0
  m_LocalEulerAnglesHint: {x: 0, y: 0, z: 0}
--- !u!1839735485 &8195094279687486824
Tilemap:
  m_ObjectHideFlags: 0
  m_CorrespondingSourceObject: {fileID: 0}
  m_PrefabInstance: {fileID: 0}
  m_PrefabAsset: {fileID: 0}
  m_GameObject: {fileID: 1201088610546240}
  m_Enabled: 1
  m_Tiles:
  - first: {x: 2, y: -6, z: 0}
    second:
      m_TileIndex: 15
      m_TileSpriteIndex: 22
      m_TileMatrixIndex: 0
      m_TileColorIndex: 0
      m_ObjectToInstantiate: {fileID: 0}
      m_TileFlags: 2
      m_ColliderType: 2
  - first: {x: 4, y: -6, z: 0}
    second:
      m_TileIndex: 16
      m_TileSpriteIndex: 21
      m_TileMatrixIndex: 0
      m_TileColorIndex: 0
      m_ObjectToInstantiate: {fileID: 0}
      m_TileFlags: 1
      m_ColliderType: 1
  - first: {x: 6, y: -6, z: 0}
    second:
      m_TileIndex: 17
      m_TileSpriteIndex: 20
      m_TileMatrixIndex: 0
      m_TileColorIndex: 0
      m_ObjectToInstantiate: {fileID: 0}
      m_TileFlags: 2
      m_ColliderType: 0
  - first: {x: 2, y: -4, z: 0}
    second:
      m_TileIndex: 12
      m_TileSpriteIndex: 19
      m_TileMatrixIndex: 0
      m_TileColorIndex: 0
      m_ObjectToInstantiate: {fileID: 0}
      m_TileFlags: 1
      m_ColliderType: 1
  - first: {x: 4, y: -4, z: 0}
    second:
      m_TileIndex: 13
      m_TileSpriteIndex: 18
      m_TileMatrixIndex: 0
      m_TileColorIndex: 0
      m_ObjectToInstantiate: {fileID: 0}
      m_TileFlags: 1
      m_ColliderType: 1
  - first: {x: 6, y: -4, z: 0}
    second:
      m_TileIndex: 14
      m_TileSpriteIndex: 17
      m_TileMatrixIndex: 0
      m_TileColorIndex: 0
      m_ObjectToInstantiate: {fileID: 0}
      m_TileFlags: 2
      m_ColliderType: 2
  - first: {x: -2, y: -2, z: 0}
    second:
      m_TileIndex: 24
      m_TileSpriteIndex: 24
      m_TileMatrixIndex: 0
      m_TileColorIndex: 0
      m_ObjectToInstantiate: {fileID: 0}
      m_TileFlags: 1
      m_ColliderType: 1
  - first: {x: 0, y: -2, z: 0}
    second:
      m_TileIndex: 25
      m_TileSpriteIndex: 25
      m_TileMatrixIndex: 0
      m_TileColorIndex: 0
      m_ObjectToInstantiate: {fileID: 0}
      m_TileFlags: 1
      m_ColliderType: 1
  - first: {x: 2, y: -2, z: 0}
    second:
      m_TileIndex: 9
      m_TileSpriteIndex: 16
      m_TileMatrixIndex: 0
      m_TileColorIndex: 0
      m_ObjectToInstantiate: {fileID: 0}
      m_TileFlags: 2
      m_ColliderType: 1
  - first: {x: 4, y: -2, z: 0}
    second:
      m_TileIndex: 10
      m_TileSpriteIndex: 15
      m_TileMatrixIndex: 0
      m_TileColorIndex: 0
      m_ObjectToInstantiate: {fileID: 0}
      m_TileFlags: 1
      m_ColliderType: 1
  - first: {x: 6, y: -2, z: 0}
    second:
      m_TileIndex: 11
      m_TileSpriteIndex: 14
      m_TileMatrixIndex: 0
      m_TileColorIndex: 0
      m_ObjectToInstantiate: {fileID: 0}
      m_TileFlags: 1
      m_ColliderType: 1
  - first: {x: -2, y: 0, z: 0}
    second:
      m_TileIndex: 21
      m_TileSpriteIndex: 3
      m_TileMatrixIndex: 0
      m_TileColorIndex: 0
      m_ObjectToInstantiate: {fileID: 0}
      m_TileFlags: 1
      m_ColliderType: 1
  - first: {x: -1, y: 0, z: 0}
    second:
      m_TileIndex: 20
      m_TileSpriteIndex: 0
      m_TileMatrixIndex: 0
      m_TileColorIndex: 0
      m_ObjectToInstantiate: {fileID: 0}
      m_TileFlags: 1
      m_ColliderType: 1
  - first: {x: 0, y: 0, z: 0}
    second:
      m_TileIndex: 18
      m_TileSpriteIndex: 2
      m_TileMatrixIndex: 0
      m_TileColorIndex: 0
      m_ObjectToInstantiate: {fileID: 0}
      m_TileFlags: 1
      m_ColliderType: 1
  - first: {x: 2, y: 0, z: 0}
    second:
      m_TileIndex: 3
      m_TileSpriteIndex: 13
      m_TileMatrixIndex: 0
      m_TileColorIndex: 0
      m_ObjectToInstantiate: {fileID: 0}
      m_TileFlags: 2
      m_ColliderType: 1
  - first: {x: 4, y: 0, z: 0}
    second:
      m_TileIndex: 2
      m_TileSpriteIndex: 12
      m_TileMatrixIndex: 0
      m_TileColorIndex: 0
      m_ObjectToInstantiate: {fileID: 0}
      m_TileFlags: 2
      m_ColliderType: 1
  - first: {x: 6, y: 0, z: 0}
    second:
      m_TileIndex: 6
      m_TileSpriteIndex: 11
      m_TileMatrixIndex: 0
      m_TileColorIndex: 0
      m_ObjectToInstantiate: {fileID: 0}
      m_TileFlags: 2
      m_ColliderType: 1
  - first: {x: -1, y: 2, z: 0}
    second:
      m_TileIndex: 19
      m_TileSpriteIndex: 1
      m_TileMatrixIndex: 0
      m_TileColorIndex: 0
      m_ObjectToInstantiate: {fileID: 0}
      m_TileFlags: 1
      m_ColliderType: 1
  - first: {x: 0, y: 2, z: 0}
    second:
      m_TileIndex: 22
      m_TileSpriteIndex: 4
      m_TileMatrixIndex: 0
      m_TileColorIndex: 0
      m_ObjectToInstantiate: {fileID: 0}
      m_TileFlags: 1
      m_ColliderType: 1
  - first: {x: 2, y: 2, z: 0}
    second:
      m_TileIndex: 1
      m_TileSpriteIndex: 10
      m_TileMatrixIndex: 0
      m_TileColorIndex: 0
      m_ObjectToInstantiate: {fileID: 0}
      m_TileFlags: 2
      m_ColliderType: 1
  - first: {x: 4, y: 2, z: 0}
    second:
      m_TileIndex: 0
      m_TileSpriteIndex: 9
      m_TileMatrixIndex: 0
      m_TileColorIndex: 0
      m_ObjectToInstantiate: {fileID: 0}
      m_TileFlags: 2
      m_ColliderType: 1
  - first: {x: 6, y: 2, z: 0}
    second:
      m_TileIndex: 7
      m_TileSpriteIndex: 6
      m_TileMatrixIndex: 0
      m_TileColorIndex: 0
      m_ObjectToInstantiate: {fileID: 0}
      m_TileFlags: 1
      m_ColliderType: 1
  - first: {x: 0, y: 4, z: 0}
    second:
      m_TileIndex: 23
      m_TileSpriteIndex: 23
      m_TileMatrixIndex: 0
      m_TileColorIndex: 0
      m_ObjectToInstantiate: {fileID: 0}
      m_TileFlags: 2
      m_ColliderType: 1
  - first: {x: 2, y: 4, z: 0}
    second:
      m_TileIndex: 4
      m_TileSpriteIndex: 7
      m_TileMatrixIndex: 0
      m_TileColorIndex: 0
      m_ObjectToInstantiate: {fileID: 0}
      m_TileFlags: 2
      m_ColliderType: 1
  - first: {x: 4, y: 4, z: 0}
    second:
      m_TileIndex: 8
      m_TileSpriteIndex: 8
      m_TileMatrixIndex: 0
      m_TileColorIndex: 0
      m_ObjectToInstantiate: {fileID: 0}
      m_TileFlags: 2
      m_ColliderType: 1
  - first: {x: 6, y: 4, z: 0}
    second:
      m_TileIndex: 5
      m_TileSpriteIndex: 5
      m_TileMatrixIndex: 0
      m_TileColorIndex: 0
      m_ObjectToInstantiate: {fileID: 0}
      m_TileFlags: 2
      m_ColliderType: 1
  m_AnimatedTiles:
  - first: {x: 6, y: -4, z: 0}
    second:
      m_AnimatedSprites:
      - {fileID: 21300004, guid: 53835a543eadc4ff8b2955079199b882, type: 3}
      - {fileID: 21300006, guid: 53835a543eadc4ff8b2955079199b882, type: 3}
      - {fileID: 21300008, guid: 53835a543eadc4ff8b2955079199b882, type: 3}
      - {fileID: 21300006, guid: 53835a543eadc4ff8b2955079199b882, type: 3}
      m_AnimationSpeed: 5
      m_AnimationTimeOffset: 0
      m_IsLooping: 1
  - first: {x: 6, y: 0, z: 0}
    second:
      m_AnimatedSprites:
      - {fileID: 21300128, guid: c896ec8f9ab9e458284e703b0e96c024, type: 3}
      - {fileID: 21300142, guid: c896ec8f9ab9e458284e703b0e96c024, type: 3}
      m_AnimationSpeed: 6
      m_AnimationTimeOffset: 0
      m_IsLooping: 1
  m_TileAssetArray:
  - m_RefCount: 1
    m_Data: {fileID: 11400000, guid: cc8c57e51dc7d4e978be676128a6b9ef, type: 2}
  - m_RefCount: 1
    m_Data: {fileID: 11400000, guid: 55ae207e0316941699787f3fbf130380, type: 2}
  - m_RefCount: 1
    m_Data: {fileID: 11400000, guid: f48d9376edd094f49b74a4e575d2be8b, type: 2}
  - m_RefCount: 1
    m_Data: {fileID: 11400000, guid: b8c6e8e3194d344a49f05166de7b63cc, type: 2}
  - m_RefCount: 1
    m_Data: {fileID: 11400000, guid: d58ea8b7d0f444501aed7efbc71228f9, type: 2}
  - m_RefCount: 1
    m_Data: {fileID: 11400000, guid: 30b48dede32a64a2eacc76475846dad6, type: 2}
  - m_RefCount: 1
    m_Data: {fileID: 11400000, guid: 268e6c13d2a6947929f960b5d0ee1df4, type: 2}
  - m_RefCount: 1
    m_Data: {fileID: 11400000, guid: 7862bb2ab20754f42bef5f4546ee6b50, type: 2}
  - m_RefCount: 1
    m_Data: {fileID: 11400000, guid: 0cb935d5f452c455daf5cab559c7d1ee, type: 2}
  - m_RefCount: 1
    m_Data: {fileID: 11400000, guid: 3124f21592cf34bf28b2091b6d2c19c2, type: 2}
  - m_RefCount: 1
    m_Data: {fileID: 11400000, guid: a7f03219aca9a486bb9081ab7fe08f8a, type: 2}
  - m_RefCount: 1
    m_Data: {fileID: 11400000, guid: c45c48efa62694be7a147eda98025841, type: 2}
  - m_RefCount: 1
    m_Data: {fileID: 11400000, guid: 92d288e5cd6c744a590cccfed40edcb7, type: 2}
  - m_RefCount: 1
    m_Data: {fileID: 11400000, guid: aa5123fc50bb1460ebcf0383d3ba6c4a, type: 2}
  - m_RefCount: 1
    m_Data: {fileID: 11400000, guid: 9dc96f497a9554b2c89fd92e884f7f28, type: 2}
  - m_RefCount: 1
    m_Data: {fileID: 11400000, guid: dd64ea5df1ae0411b81609eafc4f345f, type: 2}
  - m_RefCount: 1
    m_Data: {fileID: 11400000, guid: a02dca59a3cf9439483a447470473b16, type: 2}
  - m_RefCount: 1
    m_Data: {fileID: 11400000, guid: 32826221c895e4e6cb8bc31c0a578488, type: 2}
  - m_RefCount: 1
    m_Data: {fileID: 11400000, guid: 89fb65f4d2d026d4fb098f5e36c816e8, type: 2}
  - m_RefCount: 1
    m_Data: {fileID: 11400000, guid: c1e40aa16153455478f45e39d57ce649, type: 2}
  - m_RefCount: 1
    m_Data: {fileID: 11400000, guid: 5da7f512415c22045a0b5ad7f9840073, type: 2}
  - m_RefCount: 1
    m_Data: {fileID: 11400000, guid: 6eb2ab11545bba34997970a97359abd3, type: 2}
  - m_RefCount: 1
    m_Data: {fileID: 11400000, guid: 7e93b8737317e7b4b9b8956183d99e45, type: 2}
  - m_RefCount: 1
    m_Data: {fileID: 11400000, guid: 322a32dac5fd55c4bb6183c367fbc277, type: 2}
  - m_RefCount: 1
    m_Data: {fileID: 11400000, guid: a55efc88de92b5d44881101697bf890e, type: 2}
  - m_RefCount: 1
    m_Data: {fileID: 11400000, guid: c5ac2abb04a3f214fb9e7ddf192c37d5, type: 2}
  m_TileSpriteArray:
  - m_RefCount: 1
    m_Data: {fileID: 1630309498472388024, guid: d84ad90768867bb49a010ae45efd3566,
      type: 3}
  - m_RefCount: 1
    m_Data: {fileID: 1583796851743618850, guid: d84ad90768867bb49a010ae45efd3566,
      type: 3}
  - m_RefCount: 1
    m_Data: {fileID: -7066852294753162678, guid: d84ad90768867bb49a010ae45efd3566,
      type: 3}
  - m_RefCount: 1
    m_Data: {fileID: 4583678987639156658, guid: d84ad90768867bb49a010ae45efd3566,
      type: 3}
  - m_RefCount: 1
    m_Data: {fileID: 3193120944024713328, guid: d84ad90768867bb49a010ae45efd3566,
      type: 3}
  - m_RefCount: 1
    m_Data: {fileID: 21300000, guid: 91812beb4e1ec44de9ea582278557f21, type: 3}
  - m_RefCount: 1
    m_Data: {fileID: 21300106, guid: c896ec8f9ab9e458284e703b0e96c024, type: 3}
  - m_RefCount: 1
    m_Data: {fileID: 21300100, guid: c896ec8f9ab9e458284e703b0e96c024, type: 3}
  - m_RefCount: 1
    m_Data: {fileID: 21300000, guid: 892b788165ff9441591b26c9ac865187, type: 3}
  - m_RefCount: 1
    m_Data: {fileID: 21300000, guid: 7781706b908d244c4abf1bf2fe74ce03, type: 3}
  - m_RefCount: 1
    m_Data: {fileID: 21300000, guid: 51cb2138e31194c19b6838948e281fae, type: 3}
  - m_RefCount: 1
    m_Data: {fileID: 21300128, guid: c896ec8f9ab9e458284e703b0e96c024, type: 3}
  - m_RefCount: 1
    m_Data: {fileID: 21300000, guid: f83c201346bd04c9195d099e281283e6, type: 3}
  - m_RefCount: 1
    m_Data: {fileID: 21300000, guid: 162437533948f458c8c6fceb33dde7c1, type: 3}
  - m_RefCount: 1
    m_Data: {fileID: 21300116, guid: c896ec8f9ab9e458284e703b0e96c024, type: 3}
  - m_RefCount: 1
    m_Data: {fileID: 21300190, guid: c896ec8f9ab9e458284e703b0e96c024, type: 3}
  - m_RefCount: 1
    m_Data: {fileID: 21300156, guid: c896ec8f9ab9e458284e703b0e96c024, type: 3}
  - m_RefCount: 1
    m_Data: {fileID: 21300004, guid: 53835a543eadc4ff8b2955079199b882, type: 3}
  - m_RefCount: 1
    m_Data: {fileID: 21300188, guid: c896ec8f9ab9e458284e703b0e96c024, type: 3}
  - m_RefCount: 1
    m_Data: {fileID: 21300158, guid: c896ec8f9ab9e458284e703b0e96c024, type: 3}
  - m_RefCount: 1
    m_Data: {fileID: 21300022, guid: 53835a543eadc4ff8b2955079199b882, type: 3}
  - m_RefCount: 1
    m_Data: {fileID: 21300114, guid: c896ec8f9ab9e458284e703b0e96c024, type: 3}
  - m_RefCount: 1
    m_Data: {fileID: 21300182, guid: c896ec8f9ab9e458284e703b0e96c024, type: 3}
  - m_RefCount: 1
    m_Data: {fileID: 21300000, guid: 264c6dd79bb6bf7418a3183d1b0384fe, type: 3}
  - m_RefCount: 1
    m_Data: {fileID: 2944724365027044775, guid: d84ad90768867bb49a010ae45efd3566,
      type: 3}
  - m_RefCount: 1
    m_Data: {fileID: 6762081088129619756, guid: d84ad90768867bb49a010ae45efd3566,
      type: 3}
  m_TileMatrixArray:
  - m_RefCount: 26
    m_Data:
      e00: 1
      e01: 0
      e02: 0
      e03: 0
      e10: 0
      e11: 1
      e12: 0
      e13: 0
      e20: 0
      e21: 0
      e22: 1
      e23: 0
      e30: 0
      e31: 0
      e32: 0
      e33: 1
  - m_RefCount: 0
    m_Data:
      e00: -1
      e01: 0
      e02: 0
      e03: 0
      e10: -0
      e11: 1
      e12: 0
      e13: 0
      e20: -0
      e21: 0
      e22: 1
      e23: 0
      e30: 0
      e31: 0
      e32: 0
      e33: 1
  m_TileColorArray:
  - m_RefCount: 26
    m_Data: {r: 1, g: 1, b: 1, a: 1}
  - m_RefCount: 0
    m_Data: {r: 0, g: 0, b: 0, a: 0}
  m_AnimationFrameRate: 1
  m_Color: {r: 1, g: 1, b: 1, a: 1}
  m_Origin: {x: -3, y: -8, z: 0}
  m_Size: {x: 12, y: 20, z: 1}
  m_TileAnchor: {x: 0.5, y: 0.5, z: 0}
  m_TileOrientation: 0
  m_TileOrientationMatrix:
    e00: 1
    e01: 0
    e02: 0
    e03: 0
    e10: 0
    e11: 1
    e12: 0
    e13: 0
    e20: 0
    e21: 0
    e22: 1
    e23: 0
    e30: 0
    e31: 0
    e32: 0
    e33: 1
--- !u!483693784 &3664157344600022270
TilemapRenderer:
  m_ObjectHideFlags: 0
  m_CorrespondingSourceObject: {fileID: 0}
  m_PrefabInstance: {fileID: 0}
  m_PrefabAsset: {fileID: 0}
  m_GameObject: {fileID: 1201088610546240}
  m_Enabled: 0
  m_CastShadows: 0
  m_ReceiveShadows: 0
  m_DynamicOccludee: 0
  m_MotionVectors: 1
  m_LightProbeUsage: 0
  m_ReflectionProbeUsage: 0
  m_RenderingLayerMask: 1
  m_RendererPriority: 0
  m_Materials:
  - {fileID: 10754, guid: 0000000000000000f000000000000000, type: 0}
  m_StaticBatchInfo:
    firstSubMesh: 0
    subMeshCount: 0
  m_StaticBatchRoot: {fileID: 0}
  m_ProbeAnchor: {fileID: 0}
  m_LightProbeVolumeOverride: {fileID: 0}
  m_ScaleInLightmap: 1
  m_ReceiveGI: 1
  m_PreserveUVs: 0
  m_IgnoreNormalsForChartDetection: 0
  m_ImportantGI: 0
  m_StitchLightmapSeams: 0
  m_SelectedEditorRenderState: 0
  m_MinimumChartSize: 4
  m_AutoUVMaxDistance: 0.5
  m_AutoUVMaxAngle: 89
  m_LightmapParameters: {fileID: 0}
  m_SortingLayerID: 0
  m_SortingLayer: 0
  m_SortingOrder: 0
  m_ChunkSize: {x: 32, y: 32, z: 32}
  m_ChunkCullingBounds: {x: 0, y: 0, z: 0}
  m_MaxChunkCount: 16
  m_MaxFrameAge: 16
  m_SortOrder: 0
  m_Mode: 0
  m_DetectChunkCullingBounds: 0
  m_MaskInteraction: 0
--- !u!1 &1713824443594038
GameObject:
  m_ObjectHideFlags: 0
  m_CorrespondingSourceObject: {fileID: 0}
  m_PrefabInstance: {fileID: 0}
  m_PrefabAsset: {fileID: 0}
  serializedVersion: 6
  m_Component:
  - component: {fileID: 4498376204177096}
  - component: {fileID: 2569400267910457060}
  m_Layer: 31
  m_Name: RetroPalette
  m_TagString: Untagged
  m_Icon: {fileID: 0}
  m_NavMeshLayer: 0
  m_StaticEditorFlags: 0
  m_IsActive: 1
--- !u!4 &4498376204177096
Transform:
  m_ObjectHideFlags: 0
  m_CorrespondingSourceObject: {fileID: 0}
  m_PrefabInstance: {fileID: 0}
  m_PrefabAsset: {fileID: 0}
  m_GameObject: {fileID: 1713824443594038}
  m_LocalRotation: {x: 0, y: 0, z: 0, w: 1}
  m_LocalPosition: {x: 0, y: 0, z: 0}
  m_LocalScale: {x: 1, y: 1, z: 1}
  m_Children:
  - {fileID: 4099364924053152}
  m_Father: {fileID: 0}
  m_RootOrder: 0
  m_LocalEulerAnglesHint: {x: 0, y: 0, z: 0}
--- !u!156049354 &2569400267910457060
Grid:
  m_ObjectHideFlags: 0
  m_CorrespondingSourceObject: {fileID: 0}
  m_PrefabInstance: {fileID: 0}
  m_PrefabAsset: {fileID: 0}
  m_GameObject: {fileID: 1713824443594038}
  m_Enabled: 1
  m_CellSize: {x: 1, y: 1, z: 0}
  m_CellGap: {x: 0, y: 0, z: 0}
  m_CellLayout: 0
  m_CellSwizzle: 0
--- !u!114 &114174175475593052
MonoBehaviour:
  m_ObjectHideFlags: 0
  m_CorrespondingSourceObject: {fileID: 0}
  m_PrefabInstance: {fileID: 0}
  m_PrefabAsset: {fileID: 0}
  m_GameObject: {fileID: 0}
  m_Enabled: 1
  m_EditorHideFlags: 1
  m_Script: {fileID: 12395, guid: 0000000000000000e000000000000000, type: 0}
  m_Name: Palette Settings
  m_EditorClassIdentifier: 
  cellSizing: 0
