%YAML 1.1
%TAG !u! tag:unity3d.com,2011:
--- !u!74 &7400000
AnimationClip:
  m_ObjectHideFlags: 0
  m_CorrespondingSourceObject: {fileID: 0}
  m_PrefabInstance: {fileID: 0}
  m_PrefabAsset: {fileID: 0}
  m_Name: Spin
  serializedVersion: 6
  m_Legacy: 0
  m_Compressed: 0
  m_UseHighQualityCurve: 1
  m_RotationCurves: []
  m_CompressedRotationCurves: []
  m_EulerCurves: []
  m_PositionCurves: []
  m_ScaleCurves: []
  m_FloatCurves: []
  m_PPtrCurves:
  - curve:
    - time: 0
      value: {fileID: 21300000, guid: 8f93ffc73b09a2a498cfe9d0c1648e3c, type: 3}
    - time: 0.13333334
      value: {fileID: 21300000, guid: 703c595740072704e9ce99ed18fa80fa, type: 3}
    - time: 0.25
      value: {fileID: 21300000, guid: 265eb1e1f48266d47adc4ef6dfc83cb2, type: 3}
    - time: 0.38333333
      value: {fileID: 21300000, guid: 0113f1bb1939e5b4fac6d7c3f3a1da70, type: 3}
    - time: 0.5
      value: {fileID: 21300000, guid: fb7d5669c5084f6478ecad53285298e0, type: 3}
    - time: 0.6333333
      value: {fileID: 21300000, guid: 42d8c59e40d0fb74b900895984114690, type: 3}
    - time: 0.75
      value: {fileID: 21300000, guid: 7ec5908652f37cd489ad533afb045241, type: 3}
    - time: 0.8833333
      value: {fileID: 21300000, guid: 2fe2b5b2cdedbc14285a903cb520c65b, type: 3}
    - time: 1
      value: {fileID: 21300000, guid: 8521ae14ad2238d40a3926841fdd9162, type: 3}
    - time: 1.1333333
      value: {fileID: 21300000, guid: 75182f17de55ab34483debc3d07d06a4, type: 3}
    - time: 1.25
      value: {fileID: 21300000, guid: 40877870b59e41744bced9dae53831d3, type: 3}
    - time: 1.3833333
      value: {fileID: 21300000, guid: cfe67a7aaed1d3f448fb2d7f6618a0bc, type: 3}
    - time: 1.5
      value: {fileID: 21300000, guid: cde33d17eea238248a83c57b2338c41b, type: 3}
    - time: 1.6333333
      value: {fileID: 21300000, guid: d3faa74165871ab4e8a5356959ea0b1f, type: 3}
    - time: 1.75
      value: {fileID: 21300000, guid: 1de73eb92db271342999e5ce5ddeeaca, type: 3}
    - time: 1.95
      value: {fileID: 21300000, guid: c264e362425d5634ca13409c318f383d, type: 3}
    - time: 2.0833333
      value: {fileID: 21300000, guid: add6418ed54bd6c4eb2ba2ff0db5ed51, type: 3}
    - time: 2.2
      value: {fileID: 21300000, guid: 7d604c479aaa207479788b272eaef7b7, type: 3}
    - time: 2.3333333
      value: {fileID: 21300000, guid: a8dbba97df249cb4ba5a4e9273683f92, type: 3}
    - time: 2.45
      value: {fileID: 21300000, guid: 6d2ac6338b000a6419d44c22496f35e2, type: 3}
    - time: 2.5833333
      value: {fileID: 21300000, guid: 47b53a912e914ee4ca6e0141d4164e64, type: 3}
    - time: 2.7
      value: {fileID: 21300000, guid: 72ca4d2b76a174445adfec625b027a3e, type: 3}
    - time: 2.8333333
      value: {fileID: 21300000, guid: d2f90257c60aa104b96708be813d80e0, type: 3}
    - time: 2.95
      value: {fileID: 21300000, guid: 95bdb3888deb1ad43bb286ce785454fa, type: 3}
    - time: 3.0833333
      value: {fileID: 21300000, guid: f551b2afc232c8042bbe50efeeb6d18f, type: 3}
    - time: 3.2
      value: {fileID: 21300000, guid: cec3b79c54fd0ae4481d6e44d4ec7f7d, type: 3}
    - time: 3.3333333
      value: {fileID: 21300000, guid: fde75a7f1dfd0ce42b167ffc0529a58d, type: 3}
    - time: 3.45
      value: {fileID: 21300000, guid: 90be8be6d353ec54493f69b9bf127702, type: 3}
    - time: 3.5833333
      value: {fileID: 21300000, guid: fe8ad98602db7d54eb14b8af483d28f2, type: 3}
    - time: 3.7
      value: {fileID: 21300000, guid: 3f62371ffc49f9f43874499f10b82e81, type: 3}
    - time: 3.8333333
      value: {fileID: 21300000, guid: 9ceebaf59181cb74da1ea0a6cd554d24, type: 3}
    - time: 3.95
      value: {fileID: 21300000, guid: c8e7eeed8e869a84696ba1edb01ae051, type: 3}
    - time: 4.0833335
      value: {fileID: 21300000, guid: f2bb338e2c8ff734a81e18c5760f6e64, type: 3}
    - time: 4.2
      value: {fileID: 21300000, guid: 67c9bc886fe229c4b9318811f2ab6c9f, type: 3}
    - time: 4.3333335
      value: {fileID: 21300000, guid: 0b8db64559816134d9d1dd13defe2d39, type: 3}
    - time: 4.45
      value: {fileID: 21300000, guid: b586e68b351f19d4fa06f64a81fab59a, type: 3}
    - time: 4.5833335
      value: {fileID: 21300000, guid: 6a31229ecc87d1f49941f01a77fa4384, type: 3}
    - time: 4.7
      value: {fileID: 21300000, guid: 9405eae7f605d6748ad66ee0fc2f242c, type: 3}
    - time: 4.8333335
      value: {fileID: 21300000, guid: cc2d2241b8f6d124e83e1d728bd5edbb, type: 3}
    - time: 4.95
      value: {fileID: 21300000, guid: 091d17916f54f9442937aab839886365, type: 3}
    - time: 5.0833335
      value: {fileID: 21300000, guid: 104c35049d981ae44a319dd3c9223f73, type: 3}
    - time: 5.2
      value: {fileID: 21300000, guid: 26f6950871066d640be9b96ea0553869, type: 3}
    - time: 5.3333335
      value: {fileID: 21300000, guid: fb0f4cdca12a9e747a40c1cb5bfe2939, type: 3}
    - time: 5.45
      value: {fileID: 21300000, guid: 0a030e64d4f4f23478ee5720e424ce0a, type: 3}
    - time: 5.5833335
      value: {fileID: 21300000, guid: 6e4d456bbf889ea4b9aaacedc8c45c2a, type: 3}
    - time: 5.7833333
      value: {fileID: 21300000, guid: 0f63a4f076296a64eb4a75d7bab32618, type: 3}
    - time: 5.9
      value: {fileID: 21300000, guid: f6c81a7851d366d46becce59e6bfbc31, type: 3}
    - time: 6.0333333
      value: {fileID: 21300000, guid: 4dfeca0269159b14e956a6e978266cee, type: 3}
    - time: 6.15
      value: {fileID: 21300000, guid: 88b2f0d373f82304a8125b9950b830de, type: 3}
    - time: 6.2833333
      value: {fileID: 21300000, guid: 2934b882749ea514d859e11976daca3a, type: 3}
    - time: 6.4
      value: {fileID: 21300000, guid: 0b3b23885d0356649894d56e34832d24, type: 3}
    - time: 6.5333333
      value: {fileID: 21300000, guid: a438a4bcb89b69d4ab365af284bd42a9, type: 3}
    - time: 6.65
      value: {fileID: 21300000, guid: b19405bebbb7c064e908c633ff387c5f, type: 3}
    - time: 6.7833333
      value: {fileID: 21300000, guid: d7fd78eb6e82ae74882e4df68d421ab0, type: 3}
    - time: 6.9
      value: {fileID: 21300000, guid: 56594c86a9892944b8a1447207d2bb72, type: 3}
    - time: 7.0333333
      value: {fileID: 21300000, guid: 6ec56e4abf0846746802014f27975908, type: 3}
    - time: 7.15
      value: {fileID: 21300000, guid: 4d6d6e7d22f7d854eb1c30c35d36d984, type: 3}
    - time: 7.2833333
      value: {fileID: 21300000, guid: 506a0a466d57b2b45bccd094578ef039, type: 3}
    - time: 7.4
      value: {fileID: 21300000, guid: 018db7795ee298d4e88344b4ff0beb35, type: 3}
    - time: 7.5333333
      value: {fileID: 21300000, guid: 4090471f0d9a3214a94aef6d77bb98aa, type: 3}
    attribute: m_Sprite
    path: 
    classID: 212
    script: {fileID: 0}
  m_SampleRate: 60
  m_WrapMode: 0
  m_Bounds:
    m_Center: {x: 0, y: 0, z: 0}
    m_Extent: {x: 0, y: 0, z: 0}
  m_ClipBindingConstant:
    genericBindings:
    - serializedVersion: 2
      path: 0
      attribute: 0
      script: {fileID: 0}
      typeID: 212
      customType: 23
      isPPtrCurve: 1
    pptrCurveMapping:
    - {fileID: 21300000, guid: 8f93ffc73b09a2a498cfe9d0c1648e3c, type: 3}
    - {fileID: 21300000, guid: 703c595740072704e9ce99ed18fa80fa, type: 3}
    - {fileID: 21300000, guid: 265eb1e1f48266d47adc4ef6dfc83cb2, type: 3}
    - {fileID: 21300000, guid: 0113f1bb1939e5b4fac6d7c3f3a1da70, type: 3}
    - {fileID: 21300000, guid: fb7d5669c5084f6478ecad53285298e0, type: 3}
    - {fileID: 21300000, guid: 42d8c59e40d0fb74b900895984114690, type: 3}
    - {fileID: 21300000, guid: 7ec5908652f37cd489ad533afb045241, type: 3}
    - {fileID: 21300000, guid: 2fe2b5b2cdedbc14285a903cb520c65b, type: 3}
    - {fileID: 21300000, guid: 8521ae14ad2238d40a3926841fdd9162, type: 3}
    - {fileID: 21300000, guid: 75182f17de55ab34483debc3d07d06a4, type: 3}
    - {fileID: 21300000, guid: 40877870b59e41744bced9dae53831d3, type: 3}
    - {fileID: 21300000, guid: cfe67a7aaed1d3f448fb2d7f6618a0bc, type: 3}
    - {fileID: 21300000, guid: cde33d17eea238248a83c57b2338c41b, type: 3}
    - {fileID: 21300000, guid: d3faa74165871ab4e8a5356959ea0b1f, type: 3}
    - {fileID: 21300000, guid: 1de73eb92db271342999e5ce5ddeeaca, type: 3}
    - {fileID: 21300000, guid: c264e362425d5634ca13409c318f383d, type: 3}
    - {fileID: 21300000, guid: add6418ed54bd6c4eb2ba2ff0db5ed51, type: 3}
    - {fileID: 21300000, guid: 7d604c479aaa207479788b272eaef7b7, type: 3}
    - {fileID: 21300000, guid: a8dbba97df249cb4ba5a4e9273683f92, type: 3}
    - {fileID: 21300000, guid: 6d2ac6338b000a6419d44c22496f35e2, type: 3}
    - {fileID: 21300000, guid: 47b53a912e914ee4ca6e0141d4164e64, type: 3}
    - {fileID: 21300000, guid: 72ca4d2b76a174445adfec625b027a3e, type: 3}
    - {fileID: 21300000, guid: d2f90257c60aa104b96708be813d80e0, type: 3}
    - {fileID: 21300000, guid: 95bdb3888deb1ad43bb286ce785454fa, type: 3}
    - {fileID: 21300000, guid: f551b2afc232c8042bbe50efeeb6d18f, type: 3}
    - {fileID: 21300000, guid: cec3b79c54fd0ae4481d6e44d4ec7f7d, type: 3}
    - {fileID: 21300000, guid: fde75a7f1dfd0ce42b167ffc0529a58d, type: 3}
    - {fileID: 21300000, guid: 90be8be6d353ec54493f69b9bf127702, type: 3}
    - {fileID: 21300000, guid: fe8ad98602db7d54eb14b8af483d28f2, type: 3}
    - {fileID: 21300000, guid: 3f62371ffc49f9f43874499f10b82e81, type: 3}
    - {fileID: 21300000, guid: 9ceebaf59181cb74da1ea0a6cd554d24, type: 3}
    - {fileID: 21300000, guid: c8e7eeed8e869a84696ba1edb01ae051, type: 3}
    - {fileID: 21300000, guid: f2bb338e2c8ff734a81e18c5760f6e64, type: 3}
    - {fileID: 21300000, guid: 67c9bc886fe229c4b9318811f2ab6c9f, type: 3}
    - {fileID: 21300000, guid: 0b8db64559816134d9d1dd13defe2d39, type: 3}
    - {fileID: 21300000, guid: b586e68b351f19d4fa06f64a81fab59a, type: 3}
    - {fileID: 21300000, guid: 6a31229ecc87d1f49941f01a77fa4384, type: 3}
    - {fileID: 21300000, guid: 9405eae7f605d6748ad66ee0fc2f242c, type: 3}
    - {fileID: 21300000, guid: cc2d2241b8f6d124e83e1d728bd5edbb, type: 3}
    - {fileID: 21300000, guid: 091d17916f54f9442937aab839886365, type: 3}
    - {fileID: 21300000, guid: 104c35049d981ae44a319dd3c9223f73, type: 3}
    - {fileID: 21300000, guid: 26f6950871066d640be9b96ea0553869, type: 3}
    - {fileID: 21300000, guid: fb0f4cdca12a9e747a40c1cb5bfe2939, type: 3}
    - {fileID: 21300000, guid: 0a030e64d4f4f23478ee5720e424ce0a, type: 3}
    - {fileID: 21300000, guid: 6e4d456bbf889ea4b9aaacedc8c45c2a, type: 3}
    - {fileID: 21300000, guid: 0f63a4f076296a64eb4a75d7bab32618, type: 3}
    - {fileID: 21300000, guid: f6c81a7851d366d46becce59e6bfbc31, type: 3}
    - {fileID: 21300000, guid: 4dfeca0269159b14e956a6e978266cee, type: 3}
    - {fileID: 21300000, guid: 88b2f0d373f82304a8125b9950b830de, type: 3}
    - {fileID: 21300000, guid: 2934b882749ea514d859e11976daca3a, type: 3}
    - {fileID: 21300000, guid: 0b3b23885d0356649894d56e34832d24, type: 3}
    - {fileID: 21300000, guid: a438a4bcb89b69d4ab365af284bd42a9, type: 3}
    - {fileID: 21300000, guid: b19405bebbb7c064e908c633ff387c5f, type: 3}
    - {fileID: 21300000, guid: d7fd78eb6e82ae74882e4df68d421ab0, type: 3}
    - {fileID: 21300000, guid: 56594c86a9892944b8a1447207d2bb72, type: 3}
    - {fileID: 21300000, guid: 6ec56e4abf0846746802014f27975908, type: 3}
    - {fileID: 21300000, guid: 4d6d6e7d22f7d854eb1c30c35d36d984, type: 3}
    - {fileID: 21300000, guid: 506a0a466d57b2b45bccd094578ef039, type: 3}
    - {fileID: 21300000, guid: 018db7795ee298d4e88344b4ff0beb35, type: 3}
    - {fileID: 21300000, guid: 4090471f0d9a3214a94aef6d77bb98aa, type: 3}
  m_AnimationClipSettings:
    serializedVersion: 2
    m_AdditiveReferencePoseClip: {fileID: 0}
    m_AdditiveReferencePoseTime: 0
    m_StartTime: 0
    m_StopTime: 7.55
    m_OrientationOffsetY: 0
    m_Level: 0
    m_CycleOffset: 0
    m_HasAdditiveReferencePose: 0
    m_LoopTime: 1
    m_LoopBlend: 0
    m_LoopBlendOrientation: 0
    m_LoopBlendPositionY: 0
    m_LoopBlendPositionXZ: 0
    m_KeepOriginalOrientation: 0
    m_KeepOriginalPositionY: 1
    m_KeepOriginalPositionXZ: 0
    m_HeightFromFeet: 0
    m_Mirror: 0
  m_EditorCurves: []
  m_EulerEditorCurves: []
  m_HasGenericRootTransform: 0
  m_HasMotionFloatCurves: 0
  m_Events: []
